<svg xmlns="http://www.w3.org/2000/svg" x="0px" y="0px"
width="24" height="24"
viewBox="0 0 172 172"
style=" fill:#000000;"><g fill="none" fill-rule="nonzero" stroke="none" stroke-width="1" stroke-linecap="butt" stroke-linejoin="miter" stroke-miterlimit="10" stroke-dasharray="" stroke-dashoffset="0" font-family="none" font-weight="none" font-size="none" text-anchor="none" style="mix-blend-mode: normal"><path d="M0,172v-172h172v172z" fill="none"></path><g fill="#b1b1b1"><g id="surface1"><path d="M59.125,21.5c-20.72315,0 -37.625,16.90185 -37.625,37.625c0,5.54297 1.70068,10.68701 3.86328,15.45313c-0.69287,3.71631 -1.17578,7.4956 -1.17578,11.42188c0,34.07666 27.73584,61.8125 61.8125,61.8125c3.92627,0 7.70557,-0.48291 11.42188,-1.17578c4.76611,2.1626 9.91016,3.86328 15.45313,3.86328c20.72315,0 37.625,-16.90185 37.625,-37.625c0,-5.54297 -1.70068,-10.68701 -3.86328,-15.45312c0.69287,-3.71631 1.17578,-7.4956 1.17578,-11.42187c0,-34.07666 -27.73584,-61.8125 -61.8125,-61.8125c-3.92627,0 -7.70557,0.48291 -11.42187,1.17578c-4.76611,-2.1626 -9.91016,-3.86328 -15.45312,-3.86328zM59.125,32.25c4.64014,0 8.96533,1.13379 12.76563,3.19141c1.13379,0.60889 2.43555,0.77685 3.69531,0.50391c3.38037,-0.69287 6.82373,-1.00781 10.41406,-1.00781c28.26074,0 51.0625,22.80176 51.0625,51.0625c0,3.59033 -0.31494,7.03369 -1.00781,10.41406c-0.27295,1.25977 -0.10498,2.56153 0.50391,3.69531c2.05762,3.80029 3.19141,8.12549 3.19141,12.76563c0,14.90723 -11.96777,26.875 -26.875,26.875c-4.64014,0 -8.96533,-1.13379 -12.76562,-3.19141c-1.13379,-0.60889 -2.43555,-0.77685 -3.69531,-0.50391c-3.38037,0.69287 -6.82373,1.00781 -10.41406,1.00781c-28.26074,0 -51.0625,-22.80176 -51.0625,-51.0625c0,-3.59033 0.31494,-7.03369 1.00781,-10.41406c0.27295,-1.25977 0.10498,-2.56152 -0.50391,-3.69531c-2.05761,-3.80029 -3.19141,-8.12549 -3.19141,-12.76562c0,-14.90722 11.96778,-26.875 26.875,-26.875zM85.16016,49.21484c-13.29053,0 -27.54687,5.62695 -27.54687,20.66016c0,7.24365 2.56153,14.90723 16.79688,18.47656l17.80469,4.36719c5.35401,1.32276 6.71875,4.34619 6.71875,7.05469c0,4.51416 -4.47217,8.90234 -12.59766,8.90234c-15.87305,0 -13.83643,-12.09375 -22.33984,-12.09375c-3.82129,0 -6.55078,2.62451 -6.55078,6.38281c0,7.32764 9.00732,16.96484 28.89063,16.96484c18.91748,0 28.21875,-9.1333 28.21875,-21.33203c0,-7.89453 -3.63232,-16.125 -17.97266,-19.31641l-13.10156,-3.02344c-4.97607,-1.13379 -10.75,-2.54053 -10.75,-7.22266c0,-4.70312 3.98926,-8.0625 11.25391,-8.0625c14.63428,0 13.39551,10.07813 20.66016,10.07813c3.82129,0 7.05469,-2.18359 7.05469,-6.04687c0,-9.02832 -14.29834,-15.78906 -26.53906,-15.78906z"></path></g></g></g></svg>