{
  "devices": {
    "defaultStatistics": "mos_aqua",
    "defaultPeriod": "hour",
    "defaultDuration": 24
  },
  "tests": {
    "defaultStatistics": "mos_aqua",
    "defaultPeriod": "hour",
    "defaultDuration": 24
  },
  "report": {
    "periods": 1000,
    "defaultDuration": 24
  },
  "paging": {
    "pageSize": 10,
    "pageSizeOptions": [10, 20, 50, 100, 200]
  },
  "routes": {
    "server": "https://qualtest.sevana.biz"
  }
}
