[
  {
    "id": "4f4e9e6c-6428-414b-a767-603f44eb716a",
    "phone_id": 2,
    "phone_name": "phone 2",
    "target": "voice_long@voipobjects.com",
    "duration": 80,
    "endtime": 80127,
    "error": "",
    "mos_pvqa": 1.82,
    "mos_aqua": 2.24,
    "mos_network": 1.06,
    "r_factor": 79,
    "report_pvqa": "",
    "report_aqua": "",
    "task_id": 1,
    "task_name": "task 1"
  },
  {
    "id": "300344ad-f1b6-40a1-8ba7-72e06d286087",
    "phone_id": 2,
    "phone_name": "phone 2",
    "target": "voice_long@voipobjects.com",
    "duration": 54,
    "endtime": 77625,
    "error": "",
    "mos_pvqa": 2.43,
    "mos_aqua": 2.98,
    "mos_network": 2.46,
    "r_factor": 31,
    "report_pvqa": "",
    "report_aqua": "",
    "task_id": 3,
    "task_name": "task 3"
  },
  {
    "id": "e793f819-7200-4f1a-a128-9ba7125e11f0",
    "phone_id": 3,
    "phone_name": "phone 3",
    "target": "voice_long@voipobjects.com",
    "duration": 24,
    "endtime": 63109,
    "error": "",
    "mos_pvqa": 3.46,
    "mos_aqua": 3.93,
    "mos_network": 1.66,
    "r_factor": 30,
    "report_pvqa": "",
    "report_aqua": "",
    "task_id": 2,
    "task_name": "task 2"
  },
  {
    "id": "77d5dbae-a607-4bab-aa0b-031c4ae12aad",
    "phone_id": 2,
    "phone_name": "phone 2",
    "target": "voice_long@voipobjects.com",
    "duration": 51,
    "endtime": 52619,
    "error": "",
    "mos_pvqa": 3.81,
    "mos_aqua": 3.07,
    "mos_network": 1.24,
    "r_factor": 12,
    "report_pvqa": "",
    "report_aqua": "",
    "task_id": 2,
    "task_name": "task 2"
  },
  {
    "id": "bb562782-13fd-4c4c-a88e-492c92205d6d",
    "phone_id": 1,
    "phone_name": "phone 1",
    "target": "voice_long@voipobjects.com",
    "duration": 68,
    "endtime": 14636,
    "error": "",
    "mos_pvqa": 3.23,
    "mos_aqua": 3.65,
    "mos_network": 2.89,
    "r_factor": 44,
    "report_pvqa": "",
    "report_aqua": "",
    "task_id": 3,
    "task_name": "task 2"
  }
]
