<?xml version="1.0" encoding="UTF-8" standalone="no"?>
<svg
   xmlns:dc="http://purl.org/dc/elements/1.1/"
   xmlns:cc="http://creativecommons.org/ns#"
   xmlns:rdf="http://www.w3.org/1999/02/22-rdf-syntax-ns#"
   xmlns:svg="http://www.w3.org/2000/svg"
   xmlns="http://www.w3.org/2000/svg"
   xmlns:sodipodi="http://sodipodi.sourceforge.net/DTD/sodipodi-0.dtd"
   xmlns:inkscape="http://www.inkscape.org/namespaces/inkscape"
   enable-background="new 0 0 40 40"
   version="1.1"
   viewBox="0 0 24 24"
   xml:space="preserve"
   id="svg901"
   sodipodi:docname="skype.svg"
   width="24"
   height="24"
   inkscape:version="0.92.4 (5da689c313, 2019-01-14)"><metadata
     id="metadata907"><rdf:RDF><cc:Work
         rdf:about=""><dc:format>image/svg+xml</dc:format><dc:type
           rdf:resource="http://purl.org/dc/dcmitype/StillImage" /><dc:title></dc:title></cc:Work></rdf:RDF></metadata><defs
     id="defs905" /><sodipodi:namedview
     pagecolor="#ffffff"
     bordercolor="#666666"
     borderopacity="1"
     objecttolerance="10"
     gridtolerance="10"
     guidetolerance="10"
     inkscape:pageopacity="0"
     inkscape:pageshadow="2"
     inkscape:window-width="1920"
     inkscape:window-height="1001"
     id="namedview903"
     showgrid="false"
     inkscape:zoom="20.2"
     inkscape:cx="19.781255"
     inkscape:cy="11.113474"
     inkscape:window-x="-9"
     inkscape:window-y="-9"
     inkscape:window-maximized="1"
     inkscape:current-layer="svg901" /><g
     id="Social"
     transform="matrix(0.83333333,0,0,0.83333333,-4.6666666,-4.6666666)"><g
       id="GitHub" /><g
       id="Soundcloud_3_" /><g
       id="Dropbox_2_" /><g
       id="Instagram_7_" /><g
       id="WordPress_3_" /><g
       id="PlayStation" /><g
       id="XBox_2_" /><g
       id="Windows_2_" /><g
       id="iOS_1_" /><g
       id="Apple_2_" /><g
       id="Android_2_" /><g
       id="Deviantart_2_" /><g
       id="Yelp_2_" /><g
       id="Picassa_6_" /><g
       id="LastFM_2_" /><g
       id="Amazon_3_" /><g
       id="AIM_2_" /><g
       id="fffound_1_" /><g
       id="Forrst_3_" /><g
       id="Yahoo_3_" /><g
       id="YouTube_3_" /><g
       id="Behance_2_" /><g
       id="Tumblr_2_" /><g
       id="Vimeo_2_" /><g
       id="Skype_3_"><path
         d="M 30.3,21.6 C 30.4,21.1 30.4,20.5 30.4,20 30.4,14.1 25.6,9.6 19.7,9.6 19.1,9.6 18.6,9.7 18.1,9.7 17,8.8 15.6,8 14.1,8 10.7,8 8,10.7 8,14.1 8,15.5 8.5,16.7 9.2,17.8 9.1,18.5 9,19.2 9,20 c 0,5.9 4.8,11 10.7,11 0.8,0 1.5,-0.1 2.2,-0.2 1.1,0.9 2.5,1.2 4,1.2 3.4,0 6.1,-2.7 6.1,-6.1 0,-1.7 -0.7,-3.2 -1.7,-4.3 z"
         id="path886"
         inkscape:connector-curvature="0"
         style="fill:#3498d8" /><path
         d="m 24.7,24.9 c -0.4,0.6 -1,1.1 -1.9,1.4 -0.8,0.3 -1.8,0.5 -2.9,0.5 -1.3,0 -2.4,-0.2 -3.3,-0.7 -0.6,-0.3 -1.1,-0.8 -1.5,-1.3 -0.4,-0.6 -0.6,-1.1 -0.6,-1.6 0,-0.3 0.1,-0.6 0.3,-0.8 0.2,-0.2 0.5,-0.3 0.9,-0.3 0.3,0 0.5,0.1 0.7,0.3 0.2,0.2 0.4,0.4 0.5,0.8 0.2,0.4 0.4,0.7 0.6,1 0.2,0.3 0.5,0.5 0.8,0.7 0.4,0.2 0.8,0.3 1.4,0.3 0.8,0 1.5,-0.2 2,-0.5 0.5,-0.3 0.8,-0.8 0.8,-1.3 0,-0.4 -0.1,-0.7 -0.4,-1 -0.3,-0.3 -0.6,-0.5 -1.1,-0.6 -0.4,-0.1 -1,-0.3 -1.7,-0.4 -1,-0.2 -1.8,-0.5 -2.4,-0.7 -0.7,-0.3 -1.2,-0.7 -1.6,-1.1 -0.4,-0.5 -0.6,-1.1 -0.6,-1.8 0,-0.7 0.2,-1.3 0.6,-1.8 0.4,-0.5 1,-0.9 1.8,-1.2 0.8,-0.3 1.7,-0.4 2.7,-0.4 0.8,0 1.5,0.1 2.2,0.3 0.6,0.2 1.1,0.4 1.5,0.8 0.4,0.3 0.7,0.6 0.9,1 0.2,0.3 0.3,0.7 0.3,1 0,0.3 -0.1,0.6 -0.3,0.8 -0.2,0.2 -0.5,0.4 -0.9,0.4 -0.3,0 -0.6,-0.1 -0.7,-0.2 -0.2,-0.1 -0.3,-0.4 -0.5,-0.7 -0.2,-0.5 -0.5,-0.8 -0.9,-1.1 -0.3,-0.3 -0.9,-0.4 -1.7,-0.4 -0.7,0 -1.3,0.1 -1.7,0.4 -0.4,0.3 -0.7,0.6 -0.7,1 0,0.2 0.1,0.5 0.2,0.6 0.1,0.2 0.4,0.3 0.6,0.5 0.3,0.1 0.5,0.2 0.8,0.3 0.3,0.1 0.7,0.2 1.3,0.3 0.8,0.2 1.5,0.3 2.1,0.5 0.6,0.2 1.1,0.4 1.6,0.7 0.4,0.3 0.8,0.6 1,1.1 0.2,0.4 0.4,1 0.4,1.6 0,0.4 -0.2,1 -0.6,1.6 z"
         id="path888"
         inkscape:connector-curvature="0"
         style="fill:#ffffff" /></g><g
       id="Pinterest_2_" /><g
       id="LinkedIn_1_" /><g
       id="Dribbble_3_" /><g
       id="Flickr_3_" /><g
       id="Google_Plus_2_" /><g
       id="RSS_2_" /><g
       id="Twitter_2_" /><g
       id="Facebook_2_" /></g><g
     id="Lockup"
     transform="translate(0,-16)" /></svg>