<svg width="24" height="24" version="1.1" viewBox="0 0 24 24" xml:space="preserve" xmlns="http://www.w3.org/2000/svg">
<g transform="matrix(.047427 0 0 .047427 .31901 .15854)" fill="#0c6cb0">
	<g fill="#0c6cb0">
		<path d="m337.32 0h-170.13c-28.924 0-53.5 23.584-53.5 52.5v398.66c0 28.916 24.056 52.44 52.98 52.44l170.41-0.184c28.92 0 52.58-23.528 52.58-52.448l0.248-398.5c-4e-3 -29.02-23.548-52.472-52.588-52.472zm-109.64 31.476h49.36c4.336 0 7.868 3.52 7.868 7.868s-3.532 7.868-7.868 7.868h-49.36c-4.348 0-7.868-3.52-7.868-7.868s3.52-7.868 7.868-7.868zm-29.66 2.504c2.916-2.912 8.224-2.952 11.136 0 1.46 1.456 2.324 3.5 2.324 5.588 0 2.048-0.864 4.088-2.324 5.548-1.452 1.46-3.504 2.32-5.548 2.32-2.084 0-4.088-0.86-5.588-2.32-1.452-1.456-2.28-3.5-2.28-5.548-4e-3 -2.088 0.828-4.132 2.28-5.588zm52.752 454.03c-12.984 0-23.544-10.568-23.544-23.548 0-12.984 10.56-23.548 23.544-23.548s23.544 10.564 23.544 23.548c0 12.98-10.564 23.548-23.544 23.548zm114.72-63.1h-224.26v-350.15h224.26z" fill="#0c6cb0"/>
	</g>
</g>















</svg>
